module gitlab.com/gitlab-org/terraform-provider-gitlab/tools

go 1.24

require (
	github.com/bflad/tfproviderlint v0.31.0
	github.com/golangci/golangci-lint v1.64.6
	github.com/hashicorp/terraform-plugin-docs v0.21.0
	golang.org/x/tools v0.30.0
	mvdan.cc/sh/v3 v3.11.0
)

require (
	4d63.com/gocheckcompilerdirectives v1.3.0 // indirect
	4d63.com/gochecknoglobals v0.2.2 // indirect
	github.com/4meepo/tagalign v1.4.2 // indirect
	github.com/Abirdcfly/dupword v0.1.3 // indirect
	github.com/Antonboom/errname v1.0.0 // indirect
	github.com/Antonboom/nilnil v1.0.1 // indirect
	github.com/Antonboom/testifylint v1.5.2 // indirect
	github.com/BurntSushi/toml v1.4.1-0.20240526193622-a339e1f7089c // indirect
	github.com/Crocmagnon/fatcontext v0.7.1 // indirect
	github.com/Djarvur/go-err113 v0.0.0-20210108212216-aea10b59be24 // indirect
	github.com/GaijinEntertainment/go-exhaustruct/v3 v3.3.1 // indirect
	github.com/Kunde21/markdownfmt/v3 v3.1.0 // indirect
	github.com/Masterminds/goutils v1.1.1 // indirect
	github.com/Masterminds/semver/v3 v3.3.0 // indirect
	github.com/Masterminds/sprig/v3 v3.2.3 // indirect
	github.com/OpenPeeDeeP/depguard/v2 v2.2.0 // indirect
	github.com/ProtonMail/go-crypto v1.1.3 // indirect
	github.com/alecthomas/go-check-sumtype v0.3.1 // indirect
	github.com/alexkohler/nakedret/v2 v2.0.5 // indirect
	github.com/alexkohler/prealloc v1.0.0 // indirect
	github.com/alingse/asasalint v0.0.11 // indirect
	github.com/alingse/nilnesserr v0.1.2 // indirect
	github.com/apparentlymart/go-textseg/v15 v15.0.0 // indirect
	github.com/armon/go-radix v1.0.0 // indirect
	github.com/ashanbrown/forbidigo v1.6.0 // indirect
	github.com/ashanbrown/makezero v1.2.0 // indirect
	github.com/beorn7/perks v1.0.1 // indirect
	github.com/bflad/gopaniccheck v0.1.0 // indirect
	github.com/bgentry/speakeasy v0.1.0 // indirect
	github.com/bkielbasa/cyclop v1.2.3 // indirect
	github.com/blizzy78/varnamelen v0.8.0 // indirect
	github.com/bmatcuk/doublestar/v4 v4.8.1 // indirect
	github.com/bombsimon/wsl/v4 v4.5.0 // indirect
	github.com/breml/bidichk v0.3.2 // indirect
	github.com/breml/errchkjson v0.4.0 // indirect
	github.com/butuzov/ireturn v0.3.1 // indirect
	github.com/butuzov/mirror v1.3.0 // indirect
	github.com/catenacyber/perfsprint v0.8.2 // indirect
	github.com/ccojocar/zxcvbn-go v1.0.2 // indirect
	github.com/cespare/xxhash/v2 v2.3.0 // indirect
	github.com/charithe/durationcheck v0.0.10 // indirect
	github.com/chavacava/garif v0.1.0 // indirect
	github.com/ckaznocha/intrange v0.3.0 // indirect
	github.com/cloudflare/circl v1.3.7 // indirect
	github.com/curioswitch/go-reassign v0.3.0 // indirect
	github.com/daixiang0/gci v0.13.5 // indirect
	github.com/davecgh/go-spew v1.1.1 // indirect
	github.com/denis-tingaikin/go-header v0.5.0 // indirect
	github.com/ettle/strcase v0.2.0 // indirect
	github.com/fatih/color v1.18.0 // indirect
	github.com/fatih/structtag v1.2.0 // indirect
	github.com/firefart/nonamedreturns v1.0.5 // indirect
	github.com/fsnotify/fsnotify v1.5.4 // indirect
	github.com/fzipp/gocyclo v0.6.0 // indirect
	github.com/ghostiam/protogetter v0.3.9 // indirect
	github.com/go-critic/go-critic v0.12.0 // indirect
	github.com/go-toolsmith/astcast v1.1.0 // indirect
	github.com/go-toolsmith/astcopy v1.1.0 // indirect
	github.com/go-toolsmith/astequal v1.2.0 // indirect
	github.com/go-toolsmith/astfmt v1.1.0 // indirect
	github.com/go-toolsmith/astp v1.1.0 // indirect
	github.com/go-toolsmith/strparse v1.1.0 // indirect
	github.com/go-toolsmith/typep v1.1.0 // indirect
	github.com/go-viper/mapstructure/v2 v2.2.1 // indirect
	github.com/go-xmlfmt/xmlfmt v1.1.3 // indirect
	github.com/gobwas/glob v0.2.3 // indirect
	github.com/gofrs/flock v0.12.1 // indirect
	github.com/golang/protobuf v1.5.3 // indirect
	github.com/golangci/dupl v0.0.0-20180902072040-3e9179ac440a // indirect
	github.com/golangci/go-printf-func-name v0.1.0 // indirect
	github.com/golangci/gofmt v0.0.0-20250106114630-d62b90e6713d // indirect
	github.com/golangci/misspell v0.6.0 // indirect
	github.com/golangci/plugin-module-register v0.1.1 // indirect
	github.com/golangci/revgrep v0.8.0 // indirect
	github.com/golangci/unconvert v0.0.0-20240309020433-c5143eacb3ed // indirect
	github.com/google/go-cmp v0.7.0 // indirect
	github.com/google/renameio/v2 v2.0.0 // indirect
	github.com/google/uuid v1.6.0 // indirect
	github.com/gordonklaus/ineffassign v0.1.0 // indirect
	github.com/gostaticanalysis/analysisutil v0.7.1 // indirect
	github.com/gostaticanalysis/comment v1.5.0 // indirect
	github.com/gostaticanalysis/forcetypeassert v0.2.0 // indirect
	github.com/gostaticanalysis/nilerr v0.1.1 // indirect
	github.com/hashicorp/cli v1.1.7 // indirect
	github.com/hashicorp/errwrap v1.1.0 // indirect
	github.com/hashicorp/go-checkpoint v0.5.0 // indirect
	github.com/hashicorp/go-cleanhttp v0.5.2 // indirect
	github.com/hashicorp/go-immutable-radix/v2 v2.1.0 // indirect
	github.com/hashicorp/go-multierror v1.1.1 // indirect
	github.com/hashicorp/go-retryablehttp v0.7.7 // indirect
	github.com/hashicorp/go-uuid v1.0.3 // indirect
	github.com/hashicorp/go-version v1.7.0 // indirect
	github.com/hashicorp/golang-lru/v2 v2.0.7 // indirect
	github.com/hashicorp/hc-install v0.9.1 // indirect
	github.com/hashicorp/hcl v1.0.0 // indirect
	github.com/hashicorp/terraform-exec v0.22.0 // indirect
	github.com/hashicorp/terraform-json v0.24.0 // indirect
	github.com/hexops/gotextdiff v1.0.3 // indirect
	github.com/huandu/xstrings v1.3.3 // indirect
	github.com/imdario/mergo v0.3.15 // indirect
	github.com/inconshreveable/mousetrap v1.1.0 // indirect
	github.com/jgautheron/goconst v1.7.1 // indirect
	github.com/jingyugao/rowserrcheck v1.1.1 // indirect
	github.com/jjti/go-spancheck v0.6.4 // indirect
	github.com/julz/importas v0.2.0 // indirect
	github.com/karamaru-alpha/copyloopvar v1.2.1 // indirect
	github.com/kisielk/errcheck v1.9.0 // indirect
	github.com/kkHAIKE/contextcheck v1.1.6 // indirect
	github.com/kulti/thelper v0.6.3 // indirect
	github.com/kunwardeep/paralleltest v1.0.10 // indirect
	github.com/lasiar/canonicalheader v1.1.2 // indirect
	github.com/ldez/exptostd v0.4.2 // indirect
	github.com/ldez/gomoddirectives v0.6.1 // indirect
	github.com/ldez/grignotin v0.9.0 // indirect
	github.com/ldez/tagliatelle v0.7.1 // indirect
	github.com/ldez/usetesting v0.4.2 // indirect
	github.com/leonklingele/grouper v1.1.2 // indirect
	github.com/macabu/inamedparam v0.1.3 // indirect
	github.com/magiconair/properties v1.8.6 // indirect
	github.com/maratori/testableexamples v1.0.0 // indirect
	github.com/maratori/testpackage v1.1.1 // indirect
	github.com/matoous/godox v1.1.0 // indirect
	github.com/mattn/go-colorable v0.1.14 // indirect
	github.com/mattn/go-isatty v0.0.20 // indirect
	github.com/mattn/go-runewidth v0.0.16 // indirect
	github.com/matttproud/golang_protobuf_extensions v1.0.1 // indirect
	github.com/mgechev/revive v1.7.0 // indirect
	github.com/mitchellh/copystructure v1.2.0 // indirect
	github.com/mitchellh/go-homedir v1.1.0 // indirect
	github.com/mitchellh/mapstructure v1.5.0 // indirect
	github.com/mitchellh/reflectwalk v1.0.2 // indirect
	github.com/moricho/tparallel v0.3.2 // indirect
	github.com/nakabonne/nestif v0.3.1 // indirect
	github.com/nishanths/exhaustive v0.12.0 // indirect
	github.com/nishanths/predeclared v0.2.2 // indirect
	github.com/nunnatsa/ginkgolinter v0.19.1 // indirect
	github.com/olekukonko/tablewriter v0.0.5 // indirect
	github.com/pelletier/go-toml v1.9.5 // indirect
	github.com/pelletier/go-toml/v2 v2.2.3 // indirect
	github.com/pmezard/go-difflib v1.0.0 // indirect
	github.com/polyfloyd/go-errorlint v1.7.1 // indirect
	github.com/posener/complete v1.2.3 // indirect
	github.com/prometheus/client_golang v1.12.1 // indirect
	github.com/prometheus/client_model v0.2.0 // indirect
	github.com/prometheus/common v0.32.1 // indirect
	github.com/prometheus/procfs v0.7.3 // indirect
	github.com/quasilyte/go-ruleguard v0.4.3-0.20240823090925-0fe6f58b47b1 // indirect
	github.com/quasilyte/go-ruleguard/dsl v0.3.22 // indirect
	github.com/quasilyte/gogrep v0.5.0 // indirect
	github.com/quasilyte/regex/syntax v0.0.0-20210819130434-b3f0c404a727 // indirect
	github.com/quasilyte/stdinfo v0.0.0-20220114132959-f7386bf02567 // indirect
	github.com/raeperd/recvcheck v0.2.0 // indirect
	github.com/rivo/uniseg v0.4.7 // indirect
	github.com/rogpeppe/go-internal v1.14.1 // indirect
	github.com/ryancurrah/gomodguard v1.3.5 // indirect
	github.com/ryanrolds/sqlclosecheck v0.5.1 // indirect
	github.com/sanposhiho/wastedassign/v2 v2.1.0 // indirect
	github.com/santhosh-tekuri/jsonschema/v6 v6.0.1 // indirect
	github.com/sashamelentyev/interfacebloat v1.1.0 // indirect
	github.com/sashamelentyev/usestdlibvars v1.28.0 // indirect
	github.com/securego/gosec/v2 v2.22.1 // indirect
	github.com/shopspring/decimal v1.3.1 // indirect
	github.com/sirupsen/logrus v1.9.3 // indirect
	github.com/sivchari/containedctx v1.0.3 // indirect
	github.com/sivchari/tenv v1.12.1 // indirect
	github.com/sonatard/noctx v0.1.0 // indirect
	github.com/sourcegraph/go-diff v0.7.0 // indirect
	github.com/spf13/afero v1.12.0 // indirect
	github.com/spf13/cast v1.5.0 // indirect
	github.com/spf13/cobra v1.9.1 // indirect
	github.com/spf13/jwalterweatherman v1.1.0 // indirect
	github.com/spf13/pflag v1.0.6 // indirect
	github.com/spf13/viper v1.12.0 // indirect
	github.com/ssgreg/nlreturn/v2 v2.2.1 // indirect
	github.com/stbenjam/no-sprintf-host-port v0.2.0 // indirect
	github.com/stretchr/objx v0.5.2 // indirect
	github.com/stretchr/testify v1.10.0 // indirect
	github.com/subosito/gotenv v1.4.1 // indirect
	github.com/tdakkota/asciicheck v0.4.1 // indirect
	github.com/tetafro/godot v1.5.0 // indirect
	github.com/timakin/bodyclose v0.0.0-20241017074812-ed6a65f985e3 // indirect
	github.com/timonwong/loggercheck v0.10.1 // indirect
	github.com/tomarrell/wrapcheck/v2 v2.10.0 // indirect
	github.com/tommy-muehle/go-mnd/v2 v2.5.1 // indirect
	github.com/ultraware/funlen v0.2.0 // indirect
	github.com/ultraware/whitespace v0.2.0 // indirect
	github.com/uudashr/gocognit v1.2.0 // indirect
	github.com/uudashr/iface v1.3.1 // indirect
	github.com/xen0n/gosmopolitan v1.2.2 // indirect
	github.com/yagipy/maintidx v1.0.0 // indirect
	github.com/yeya24/promlinter v0.3.0 // indirect
	github.com/ykadowak/zerologlint v0.1.5 // indirect
	github.com/yuin/goldmark v1.7.7 // indirect
	github.com/yuin/goldmark-meta v1.1.0 // indirect
	github.com/zclconf/go-cty v1.16.2 // indirect
	gitlab.com/bosi/decorder v0.4.2 // indirect
	go-simpler.org/musttag v0.13.0 // indirect
	go-simpler.org/sloglint v0.9.0 // indirect
	go.abhg.dev/goldmark/frontmatter v0.2.0 // indirect
	go.uber.org/atomic v1.7.0 // indirect
	go.uber.org/automaxprocs v1.6.0 // indirect
	go.uber.org/multierr v1.6.0 // indirect
	go.uber.org/zap v1.24.0 // indirect
	golang.org/x/crypto v0.33.0 // indirect
	golang.org/x/exp v0.0.0-20240909161429-701f63a606c0 // indirect
	golang.org/x/exp/typeparams v0.0.0-20250210185358-939b2ce775ac // indirect
	golang.org/x/mod v0.23.0 // indirect
	golang.org/x/sync v0.11.0 // indirect
	golang.org/x/sys v0.30.0 // indirect
	golang.org/x/term v0.29.0 // indirect
	golang.org/x/text v0.22.0 // indirect
	google.golang.org/protobuf v1.36.4 // indirect
	gopkg.in/ini.v1 v1.67.0 // indirect
	gopkg.in/yaml.v2 v2.4.0 // indirect
	gopkg.in/yaml.v3 v3.0.1 // indirect
	honnef.co/go/tools v0.6.0 // indirect
	mvdan.cc/editorconfig v0.3.0 // indirect
	mvdan.cc/gofumpt v0.7.0 // indirect
	mvdan.cc/unparam v0.0.0-20240528143540-8a5130ca722f // indirect
)
